{
  "_embedded" : {
    "ontologies" : [ {
      "imported" : "false",
      "lang" : "en",
      "numberOfClasses" : "0",
      "numberOfEntities" : "0",
      "numberOfIndividuals" : "0",
      "numberOfProperties" : "0",
      "ontologyId" : "owl2primer-minimal",
      "ontology_purl" : "./testcases/owl2-primer/minimal.owl",
      "preferredPrefix" : "owl2primer-minimal",
      "propertyLabels" : { },
      "type" : [ "ontology" ],
      "uri" : "http://www.ebi.ac.uk/testcases/owl2primer/minimal.owl",
      "http://www.w3.org/1999/02/22-rdf-syntax-ns#type" : "http://www.w3.org/2002/07/owl#Ontology",
      "http://www.w3.org/2002/07/owl#versionIRI" : "http://www.ebi.ac.uk/testcases/owl2primer/v.0.0.1/minimal.owl",
      "_links" : {
        "self" : {
          "href" : "http://ols4-server:8080/api/v2/ontologies/owl2primer-minimal?lang=en"
        },
        "entities" : {
          "href" : "http://ols4-server:8080/api/v2/ontologies/owl2primer-minimal/entities"
        },
        "classes" : {
          "href" : "http://ols4-server:8080/api/v2/ontologies/owl2primer-minimal/classes"
        },
        "properties" : {
          "href" : "http://ols4-server:8080/api/v2/ontologies/owl2primer-minimal/properties"
        },
        "individuals" : {
          "href" : "http://ols4-server:8080/api/v2/ontologies/owl2primer-minimal/individuals"
        }
      }
    }, {
      "imported" : "false",
      "lang" : "en",
      "numberOfClasses" : "1",
      "numberOfEntities" : "1",
      "numberOfIndividuals" : "0",
      "numberOfProperties" : "0",
      "ontologyId" : "owl2primer-class",
      "ontology_purl" : "./testcases/owl2-primer/class.owl",
      "preferredPrefix" : "owl2primer-class",
      "propertyLabels" : { },
      "type" : [ "ontology" ],
      "uri" : "http://www.ebi.ac.uk/testcases/owl2primer/class.owl",
      "http://www.w3.org/1999/02/22-rdf-syntax-ns#type" : "http://www.w3.org/2002/07/owl#Ontology",
      "http://www.w3.org/2002/07/owl#versionIRI" : "http://www.ebi.ac.uk/testcases/owl2primer/v.0.0.1/class.owl",
      "_links" : {
        "self" : {
          "href" : "http://ols4-server:8080/api/v2/ontologies/owl2primer-class?lang=en"
        },
        "entities" : {
          "href" : "http://ols4-server:8080/api/v2/ontologies/owl2primer-class/entities"
        },
        "classes" : {
          "href" : "http://ols4-server:8080/api/v2/ontologies/owl2primer-class/classes"
        },
        "properties" : {
          "href" : "http://ols4-server:8080/api/v2/ontologies/owl2primer-class/properties"
        },
        "individuals" : {
          "href" : "http://ols4-server:8080/api/v2/ontologies/owl2primer-class/individuals"
        }
      }
    }, {
      "imported" : "false",
      "lang" : "en",
      "numberOfClasses" : "0",
      "numberOfEntities" : "1",
      "numberOfIndividuals" : "1",
      "numberOfProperties" : "0",
      "ontologyId" : "owl2primer-individual",
      "ontology_purl" : "./testcases/owl2-primer/namedIndividual.owl",
      "preferredPrefix" : "owl2primer-individual",
      "propertyLabels" : { },
      "type" : [ "ontology" ],
      "uri" : "http://www.ebi.ac.uk/testcases/owl2primer/namedIndividual.owl",
      "http://www.w3.org/1999/02/22-rdf-syntax-ns#type" : "http://www.w3.org/2002/07/owl#Ontology",
      "http://www.w3.org/2002/07/owl#versionIRI" : "http://www.ebi.ac.uk/testcases/owl2primer/v.0.0.1/namedIndividual.owl",
      "_links" : {
        "self" : {
          "href" : "http://ols4-server:8080/api/v2/ontologies/owl2primer-individual?lang=en"
        },
        "entities" : {
          "href" : "http://ols4-server:8080/api/v2/ontologies/owl2primer-individual/entities"
        },
        "classes" : {
          "href" : "http://ols4-server:8080/api/v2/ontologies/owl2primer-individual/classes"
        },
        "properties" : {
          "href" : "http://ols4-server:8080/api/v2/ontologies/owl2primer-individual/properties"
        },
        "individuals" : {
          "href" : "http://ols4-server:8080/api/v2/ontologies/owl2primer-individual/individuals"
        }
      }
    }, {
      "imported" : "false",
      "lang" : "en",
      "numberOfClasses" : "3",
      "numberOfEntities" : "3",
      "numberOfIndividuals" : "0",
      "numberOfProperties" : "0",
      "ontologyId" : "owl2primer-subclassof",
      "ontology_purl" : "./testcases/owl2-primer/subClassOf.owl",
      "preferredPrefix" : "owl2primer-subClassOf",
      "propertyLabels" : { },
      "type" : [ "ontology" ],
      "uri" : "http://www.ebi.ac.uk/testcases/owl2primer/subClassOf.owl",
      "http://www.w3.org/1999/02/22-rdf-syntax-ns#type" : "http://www.w3.org/2002/07/owl#Ontology",
      "http://www.w3.org/2002/07/owl#versionIRI" : "http://www.ebi.ac.uk/testcases/owl2primer/v.0.0.1/subClassOf.owl",
      "_links" : {
        "self" : {
          "href" : "http://ols4-server:8080/api/v2/ontologies/owl2primer-subclassof?lang=en"
        },
        "entities" : {
          "href" : "http://ols4-server:8080/api/v2/ontologies/owl2primer-subclassof/entities"
        },
        "classes" : {
          "href" : "http://ols4-server:8080/api/v2/ontologies/owl2primer-subclassof/classes"
        },
        "properties" : {
          "href" : "http://ols4-server:8080/api/v2/ontologies/owl2primer-subclassof/properties"
        },
        "individuals" : {
          "href" : "http://ols4-server:8080/api/v2/ontologies/owl2primer-subclassof/individuals"
        }
      }
    }, {
      "imported" : "false",
      "lang" : "en",
      "numberOfClasses" : "2",
      "numberOfEntities" : "2",
      "numberOfIndividuals" : "0",
      "numberOfProperties" : "0",
      "ontologyId" : "owl2primer-equivalentclass",
      "ontology_purl" : "./testcases/owl2-primer/equivalentClass.owl",
      "preferredPrefix" : "owl2primer-equivalentClass",
      "propertyLabels" : { },
      "type" : [ "ontology" ],
      "uri" : "http://www.ebi.ac.uk/testcases/owl2primer/equivalentClass.owl",
      "http://www.w3.org/1999/02/22-rdf-syntax-ns#type" : "http://www.w3.org/2002/07/owl#Ontology",
      "http://www.w3.org/2002/07/owl#versionIRI" : "http://www.ebi.ac.uk/testcases/owl2primer/v.0.0.1/equivalentClass.owl",
      "_links" : {
        "self" : {
          "href" : "http://ols4-server:8080/api/v2/ontologies/owl2primer-equivalentclass?lang=en"
        },
        "entities" : {
          "href" : "http://ols4-server:8080/api/v2/ontologies/owl2primer-equivalentclass/entities"
        },
        "classes" : {
          "href" : "http://ols4-server:8080/api/v2/ontologies/owl2primer-equivalentclass/classes"
        },
        "properties" : {
          "href" : "http://ols4-server:8080/api/v2/ontologies/owl2primer-equivalentclass/properties"
        },
        "individuals" : {
          "href" : "http://ols4-server:8080/api/v2/ontologies/owl2primer-equivalentclass/individuals"
        }
      }
    }, {
      "imported" : "false",
      "lang" : "en",
      "numberOfClasses" : "5",
      "numberOfEntities" : "5",
      "numberOfIndividuals" : "0",
      "numberOfProperties" : "0",
      "ontologyId" : "owl2primer-disjointclasses",
      "ontology_purl" : "./testcases/owl2-primer/allDisjointClasses.owl",
      "preferredPrefix" : "owl2primer-disjointClasses",
      "propertyLabels" : { },
      "type" : [ "ontology" ],
      "uri" : "http://www.ebi.ac.uk/testcases/owl2primer/allDisjointClasses.owl",
      "http://www.w3.org/1999/02/22-rdf-syntax-ns#type" : "http://www.w3.org/2002/07/owl#Ontology",
      "http://www.w3.org/2002/07/owl#versionIRI" : "http://www.ebi.ac.uk/testcases/owl2primer/v.0.0.1/allDisjointClasses.owl",
      "_links" : {
        "self" : {
          "href" : "http://ols4-server:8080/api/v2/ontologies/owl2primer-disjointclasses?lang=en"
        },
        "entities" : {
          "href" : "http://ols4-server:8080/api/v2/ontologies/owl2primer-disjointclasses/entities"
        },
        "classes" : {
          "href" : "http://ols4-server:8080/api/v2/ontologies/owl2primer-disjointclasses/classes"
        },
        "properties" : {
          "href" : "http://ols4-server:8080/api/v2/ontologies/owl2primer-disjointclasses/properties"
        },
        "individuals" : {
          "href" : "http://ols4-server:8080/api/v2/ontologies/owl2primer-disjointclasses/individuals"
        }
      }
    }, {
      "imported" : "false",
      "lang" : "en",
      "numberOfClasses" : "3",
      "numberOfEntities" : "5",
      "numberOfIndividuals" : "0",
      "numberOfProperties" : "2",
      "ontologyId" : "owl2primer-subobjectpropertyof",
      "ontology_purl" : "./testcases/owl2-primer/subObjectPropertyOf.owl",
      "preferredPrefix" : "owl2primer-subObjectPropertyOf",
      "propertyLabels" : { },
      "type" : [ "ontology" ],
      "uri" : "http://www.ebi.ac.uk/testcases/owl2primer/subObjectPropertyOf",
      "http://www.w3.org/1999/02/22-rdf-syntax-ns#type" : "http://www.w3.org/2002/07/owl#Ontology",
      "http://www.w3.org/2002/07/owl#versionIRI" : "http://www.ebi.ac.uk/testcases/owl2primer/v.0.0.1/subObjectPropertyOf.owl",
      "_links" : {
        "self" : {
          "href" : "http://ols4-server:8080/api/v2/ontologies/owl2primer-subobjectpropertyof?lang=en"
        },
        "entities" : {
          "href" : "http://ols4-server:8080/api/v2/ontologies/owl2primer-subobjectpropertyof/entities"
        },
        "classes" : {
          "href" : "http://ols4-server:8080/api/v2/ontologies/owl2primer-subobjectpropertyof/classes"
        },
        "properties" : {
          "href" : "http://ols4-server:8080/api/v2/ontologies/owl2primer-subobjectpropertyof/properties"
        },
        "individuals" : {
          "href" : "http://ols4-server:8080/api/v2/ontologies/owl2primer-subobjectpropertyof/individuals"
        }
      }
    }, {
      "imported" : "false",
      "lang" : "en",
      "numberOfClasses" : "3",
      "numberOfEntities" : "4",
      "numberOfIndividuals" : "0",
      "numberOfProperties" : "1",
      "ontologyId" : "owl2primer-domain-range-restriction",
      "ontology_purl" : "./testcases/owl2-primer/domain-range-restriction.owl",
      "preferredPrefix" : "owl2primer-domain-range-restriction",
      "propertyLabels" : { },
      "type" : [ "ontology" ],
      "uri" : "http://www.ebi.ac.uk/testcases/owl2primer/domain-range-restriction.owl",
      "http://www.w3.org/1999/02/22-rdf-syntax-ns#type" : "http://www.w3.org/2002/07/owl#Ontology",
      "http://www.w3.org/2002/07/owl#versionIRI" : "http://www.ebi.ac.uk/testcases/owl2primer/v.0.0.1/domain-range-restriction.owl",
      "_links" : {
        "self" : {
          "href" : "http://ols4-server:8080/api/v2/ontologies/owl2primer-domain-range-restriction?lang=en"
        },
        "entities" : {
          "href" : "http://ols4-server:8080/api/v2/ontologies/owl2primer-domain-range-restriction/entities"
        },
        "classes" : {
          "href" : "http://ols4-server:8080/api/v2/ontologies/owl2primer-domain-range-restriction/classes"
        },
        "properties" : {
          "href" : "http://ols4-server:8080/api/v2/ontologies/owl2primer-domain-range-restriction/properties"
        },
        "individuals" : {
          "href" : "http://ols4-server:8080/api/v2/ontologies/owl2primer-domain-range-restriction/individuals"
        }
      }
    }, {
      "imported" : "false",
      "lang" : "en",
      "numberOfClasses" : "3",
      "numberOfEntities" : "6",
      "numberOfIndividuals" : "2",
      "numberOfProperties" : "1",
      "ontologyId" : "owl2primer-objectproperty-assertionproperty",
      "ontology_purl" : "./testcases/owl2-primer/objectProperty-assertionProperty.owl",
      "preferredPrefix" : "owl2primer-objectProperty-assertionProperty",
      "propertyLabels" : { },
      "type" : [ "ontology" ],
      "uri" : "http://www.ebi.ac.uk/testcases/owl2primer/objectProperty-assertionProperty.owl",
      "http://www.w3.org/1999/02/22-rdf-syntax-ns#type" : "http://www.w3.org/2002/07/owl#Ontology",
      "http://www.w3.org/2002/07/owl#versionIRI" : "http://www.ebi.ac.uk/testcases/owl2primer/v.0.0.1/objectProperty-assertionProperty.owl",
      "_links" : {
        "self" : {
          "href" : "http://ols4-server:8080/api/v2/ontologies/owl2primer-objectproperty-assertionproperty?lang=en"
        },
        "entities" : {
          "href" : "http://ols4-server:8080/api/v2/ontologies/owl2primer-objectproperty-assertionproperty/entities"
        },
        "classes" : {
          "href" : "http://ols4-server:8080/api/v2/ontologies/owl2primer-objectproperty-assertionproperty/classes"
        },
        "properties" : {
          "href" : "http://ols4-server:8080/api/v2/ontologies/owl2primer-objectproperty-assertionproperty/properties"
        },
        "individuals" : {
          "href" : "http://ols4-server:8080/api/v2/ontologies/owl2primer-objectproperty-assertionproperty/individuals"
        }
      }
    }, {
      "imported" : "false",
      "lang" : "en",
      "numberOfClasses" : "3",
      "numberOfEntities" : "6",
      "numberOfIndividuals" : "2",
      "numberOfProperties" : "1",
      "ontologyId" : "owl2primer-objectproperty-negativepropertyassertion",
      "ontology_purl" : "./testcases/owl2-primer/objectProperty-negativePropertyAssertion.owl",
      "preferredPrefix" : "owl2primer-objectProperty-negativePropertyAssertion",
      "propertyLabels" : { },
      "type" : [ "ontology" ],
      "uri" : "http://www.ebi.ac.uk/testcases/owl2primer/objectProperty-negativePropertyAssertion.owl",
      "http://www.w3.org/1999/02/22-rdf-syntax-ns#type" : "http://www.w3.org/2002/07/owl#Ontology",
      "http://www.w3.org/2002/07/owl#versionIRI" : "http://www.ebi.ac.uk/testcases/owl2primer/v.0.0.1/objectProperty-negativePropertyAssertion.owl",
      "_links" : {
        "self" : {
          "href" : "http://ols4-server:8080/api/v2/ontologies/owl2primer-objectproperty-negativepropertyassertion?lang=en"
        },
        "entities" : {
          "href" : "http://ols4-server:8080/api/v2/ontologies/owl2primer-objectproperty-negativepropertyassertion/entities"
        },
        "classes" : {
          "href" : "http://ols4-server:8080/api/v2/ontologies/owl2primer-objectproperty-negativepropertyassertion/classes"
        },
        "properties" : {
          "href" : "http://ols4-server:8080/api/v2/ontologies/owl2primer-objectproperty-negativepropertyassertion/properties"
        },
        "individuals" : {
          "href" : "http://ols4-server:8080/api/v2/ontologies/owl2primer-objectproperty-negativepropertyassertion/individuals"
        }
      }
    }, {
      "imported" : "false",
      "lang" : "en",
      "numberOfClasses" : "0",
      "numberOfEntities" : "2",
      "numberOfIndividuals" : "2",
      "numberOfProperties" : "0",
      "ontologyId" : "owl2primer-namedindividual-sameas",
      "ontology_purl" : "./testcases/owl2-primer/namedIndividual-sameAs.owl",
      "preferredPrefix" : "owl2primer-namedIndividual-sameAs",
      "propertyLabels" : { },
      "type" : [ "ontology" ],
      "uri" : "http://www.ebi.ac.uk/testcases/owl2primer/namedIndividual-sameAs.owl",
      "http://www.w3.org/1999/02/22-rdf-syntax-ns#type" : "http://www.w3.org/2002/07/owl#Ontology",
      "http://www.w3.org/2002/07/owl#versionIRI" : "http://www.ebi.ac.uk/testcases/owl2primer/v.0.0.1/namedIndividual-sameAs.owl",
      "_links" : {
        "self" : {
          "href" : "http://ols4-server:8080/api/v2/ontologies/owl2primer-namedindividual-sameas?lang=en"
        },
        "entities" : {
          "href" : "http://ols4-server:8080/api/v2/ontologies/owl2primer-namedindividual-sameas/entities"
        },
        "classes" : {
          "href" : "http://ols4-server:8080/api/v2/ontologies/owl2primer-namedindividual-sameas/classes"
        },
        "properties" : {
          "href" : "http://ols4-server:8080/api/v2/ontologies/owl2primer-namedindividual-sameas/properties"
        },
        "individuals" : {
          "href" : "http://ols4-server:8080/api/v2/ontologies/owl2primer-namedindividual-sameas/individuals"
        }
      }
    }, {
      "imported" : "false",
      "lang" : "en",
      "numberOfClasses" : "0",
      "numberOfEntities" : "2",
      "numberOfIndividuals" : "2",
      "numberOfProperties" : "0",
      "ontologyId" : "owl2primer-namedindividual-differentfrom",
      "ontology_purl" : "./testcases/owl2-primer/namedIndividual-differentFrom.owl",
      "preferredPrefix" : "owl2primer-namedIndividual-differentFrom",
      "propertyLabels" : { },
      "type" : [ "ontology" ],
      "uri" : "http://www.ebi.ac.uk/testcases/owl2primer/namedIndividual-differentFrom.owl",
      "http://www.w3.org/1999/02/22-rdf-syntax-ns#type" : "http://www.w3.org/2002/07/owl#Ontology",
      "http://www.w3.org/2002/07/owl#versionIRI" : "http://www.ebi.ac.uk/testcases/owl2primer/v.0.0.1/namedIndividual-differentFrom.owl",
      "_links" : {
        "self" : {
          "href" : "http://ols4-server:8080/api/v2/ontologies/owl2primer-namedindividual-differentfrom?lang=en"
        },
        "entities" : {
          "href" : "http://ols4-server:8080/api/v2/ontologies/owl2primer-namedindividual-differentfrom/entities"
        },
        "classes" : {
          "href" : "http://ols4-server:8080/api/v2/ontologies/owl2primer-namedindividual-differentfrom/classes"
        },
        "properties" : {
          "href" : "http://ols4-server:8080/api/v2/ontologies/owl2primer-namedindividual-differentfrom/properties"
        },
        "individuals" : {
          "href" : "http://ols4-server:8080/api/v2/ontologies/owl2primer-namedindividual-differentfrom/individuals"
        }
      }
    }, {
      "imported" : "false",
      "lang" : "en",
      "numberOfClasses" : "1",
      "numberOfEntities" : "3",
      "numberOfIndividuals" : "1",
      "numberOfProperties" : "1",
      "ontologyId" : "owl2primer-datatypes",
      "ontology_purl" : "./testcases/owl2-primer/datatypes.owl",
      "preferredPrefix" : "owl2primer-datatypes",
      "propertyLabels" : { },
      "type" : [ "ontology" ],
      "uri" : "http://www.ebi.ac.uk/testcases/owl2primer/datatypes.owl",
      "http://www.w3.org/1999/02/22-rdf-syntax-ns#type" : "http://www.w3.org/2002/07/owl#Ontology",
      "http://www.w3.org/2002/07/owl#versionIRI" : "http://www.ebi.ac.uk/testcases/owl2primer/v.0.0.1/datatypes.owl",
      "_links" : {
        "self" : {
          "href" : "http://ols4-server:8080/api/v2/ontologies/owl2primer-datatypes?lang=en"
        },
        "entities" : {
          "href" : "http://ols4-server:8080/api/v2/ontologies/owl2primer-datatypes/entities"
        },
        "classes" : {
          "href" : "http://ols4-server:8080/api/v2/ontologies/owl2primer-datatypes/classes"
        },
        "properties" : {
          "href" : "http://ols4-server:8080/api/v2/ontologies/owl2primer-datatypes/properties"
        },
        "individuals" : {
          "href" : "http://ols4-server:8080/api/v2/ontologies/owl2primer-datatypes/individuals"
        }
      }
    }, {
      "imported" : "false",
      "lang" : "en",
      "numberOfClasses" : "4",
      "numberOfEntities" : "4",
      "numberOfIndividuals" : "0",
      "numberOfProperties" : "0",
      "ontologyId" : "owl2primer-intersectionof",
      "ontology_purl" : "./testcases/owl2-primer/intersectionOf.owl",
      "preferredPrefix" : "owl2primer-intersectionOf",
      "propertyLabels" : { },
      "type" : [ "ontology" ],
      "uri" : "http://www.ebi.ac.uk/testcases/owl2primer/intersectionOf.owl",
      "http://www.w3.org/1999/02/22-rdf-syntax-ns#type" : "http://www.w3.org/2002/07/owl#Ontology",
      "http://www.w3.org/2002/07/owl#versionIRI" : "http://www.ebi.ac.uk/testcases/owl2primer/v.0.0.1/intersectionOf.owl",
      "_links" : {
        "self" : {
          "href" : "http://ols4-server:8080/api/v2/ontologies/owl2primer-intersectionof?lang=en"
        },
        "entities" : {
          "href" : "http://ols4-server:8080/api/v2/ontologies/owl2primer-intersectionof/entities"
        },
        "classes" : {
          "href" : "http://ols4-server:8080/api/v2/ontologies/owl2primer-intersectionof/classes"
        },
        "properties" : {
          "href" : "http://ols4-server:8080/api/v2/ontologies/owl2primer-intersectionof/properties"
        },
        "individuals" : {
          "href" : "http://ols4-server:8080/api/v2/ontologies/owl2primer-intersectionof/individuals"
        }
      }
    }, {
      "imported" : "false",
      "lang" : "en",
      "numberOfClasses" : "3",
      "numberOfEntities" : "3",
      "numberOfIndividuals" : "0",
      "numberOfProperties" : "0",
      "ontologyId" : "owl2primer-disjointunionof",
      "ontology_purl" : "./testcases/owl2-primer/disjointUnionOf.owl",
      "preferredPrefix" : "owl2primer-disjointUnionOf",
      "propertyLabels" : { },
      "type" : [ "ontology" ],
      "uri" : "http://www.ebi.ac.uk/testcases/owl2primer/disjointUnionOf.owl",
      "http://www.w3.org/1999/02/22-rdf-syntax-ns#type" : "http://www.w3.org/2002/07/owl#Ontology",
      "http://www.w3.org/2002/07/owl#versionIRI" : "http://www.ebi.ac.uk/testcases/owl2primer/v.0.0.1/disjointUnionOf.owl",
      "_links" : {
        "self" : {
          "href" : "http://ols4-server:8080/api/v2/ontologies/owl2primer-disjointunionof?lang=en"
        },
        "entities" : {
          "href" : "http://ols4-server:8080/api/v2/ontologies/owl2primer-disjointunionof/entities"
        },
        "classes" : {
          "href" : "http://ols4-server:8080/api/v2/ontologies/owl2primer-disjointunionof/classes"
        },
        "properties" : {
          "href" : "http://ols4-server:8080/api/v2/ontologies/owl2primer-disjointunionof/properties"
        },
        "individuals" : {
          "href" : "http://ols4-server:8080/api/v2/ontologies/owl2primer-disjointunionof/individuals"
        }
      }
    }, {
      "imported" : "false",
      "lang" : "en",
      "numberOfClasses" : "5",
      "numberOfEntities" : "5",
      "numberOfIndividuals" : "0",
      "numberOfProperties" : "0",
      "ontologyId" : "owl2primer-unionof",
      "ontology_purl" : "./testcases/owl2-primer/unionOf.owl",
      "preferredPrefix" : "owl2primer-unionOf",
      "propertyLabels" : { },
      "type" : [ "ontology" ],
      "uri" : "http://www.ebi.ac.uk/testcases/owl2primer/unionOf.owl",
      "http://www.w3.org/1999/02/22-rdf-syntax-ns#type" : "http://www.w3.org/2002/07/owl#Ontology",
      "http://www.w3.org/2002/07/owl#versionIRI" : "http://www.ebi.ac.uk/testcases/owl2primer/v.0.0.1/unionOf.owl",
      "_links" : {
        "self" : {
          "href" : "http://ols4-server:8080/api/v2/ontologies/owl2primer-unionof?lang=en"
        },
        "entities" : {
          "href" : "http://ols4-server:8080/api/v2/ontologies/owl2primer-unionof/entities"
        },
        "classes" : {
          "href" : "http://ols4-server:8080/api/v2/ontologies/owl2primer-unionof/classes"
        },
        "properties" : {
          "href" : "http://ols4-server:8080/api/v2/ontologies/owl2primer-unionof/properties"
        },
        "individuals" : {
          "href" : "http://ols4-server:8080/api/v2/ontologies/owl2primer-unionof/individuals"
        }
      }
    }, {
      "imported" : "false",
      "lang" : "en",
      "numberOfClasses" : "5",
      "numberOfEntities" : "5",
      "numberOfIndividuals" : "0",
      "numberOfProperties" : "0",
      "ontologyId" : "owl2primer-equivalent-intersectionof-complementof",
      "ontology_purl" : "./testcases/owl2-primer/equivalent-intersectionOf-complementOf.owl",
      "preferredPrefix" : "owl2primer-equivalent-intersectionOf-complementOf",
      "propertyLabels" : { },
      "type" : [ "ontology" ],
      "uri" : "http://www.ebi.ac.uk/testcases/owl2primer/equivalent-intersectionOf-complementOf.owl",
      "http://www.w3.org/1999/02/22-rdf-syntax-ns#type" : "http://www.w3.org/2002/07/owl#Ontology",
      "http://www.w3.org/2002/07/owl#versionIRI" : "http://www.ebi.ac.uk/testcases/owl2primer/v.0.0.1/equivalent-intersectionOf-complementOf.owl",
      "_links" : {
        "self" : {
          "href" : "http://ols4-server:8080/api/v2/ontologies/owl2primer-equivalent-intersectionof-complementof?lang=en"
        },
        "entities" : {
          "href" : "http://ols4-server:8080/api/v2/ontologies/owl2primer-equivalent-intersectionof-complementof/entities"
        },
        "classes" : {
          "href" : "http://ols4-server:8080/api/v2/ontologies/owl2primer-equivalent-intersectionof-complementof/classes"
        },
        "properties" : {
          "href" : "http://ols4-server:8080/api/v2/ontologies/owl2primer-equivalent-intersectionof-complementof/properties"
        },
        "individuals" : {
          "href" : "http://ols4-server:8080/api/v2/ontologies/owl2primer-equivalent-intersectionof-complementof/individuals"
        }
      }
    }, {
      "imported" : "false",
      "lang" : "en",
      "numberOfClasses" : "4",
      "numberOfEntities" : "4",
      "numberOfIndividuals" : "0",
      "numberOfProperties" : "0",
      "ontologyId" : "owl2primer-subclassof-intersectionof",
      "ontology_purl" : "./testcases/owl2-primer/subClassOf-intersectionOf.owl",
      "preferredPrefix" : "owl2primer-subClassOf-intersectionOf",
      "propertyLabels" : { },
      "type" : [ "ontology" ],
      "uri" : "http://www.ebi.ac.uk/testcases/owl2primer/subClassOf-intersectionOf.owl",
      "http://www.w3.org/1999/02/22-rdf-syntax-ns#type" : "http://www.w3.org/2002/07/owl#Ontology",
      "http://www.w3.org/2002/07/owl#versionIRI" : "http://www.ebi.ac.uk/testcases/owl2primer/v.0.0.1/subClassOf-intersectionOf.owl",
      "_links" : {
        "self" : {
          "href" : "http://ols4-server:8080/api/v2/ontologies/owl2primer-subclassof-intersectionof?lang=en"
        },
        "entities" : {
          "href" : "http://ols4-server:8080/api/v2/ontologies/owl2primer-subclassof-intersectionof/entities"
        },
        "classes" : {
          "href" : "http://ols4-server:8080/api/v2/ontologies/owl2primer-subclassof-intersectionof/classes"
        },
        "properties" : {
          "href" : "http://ols4-server:8080/api/v2/ontologies/owl2primer-subclassof-intersectionof/properties"
        },
        "individuals" : {
          "href" : "http://ols4-server:8080/api/v2/ontologies/owl2primer-subclassof-intersectionof/individuals"
        }
      }
    }, {
      "imported" : "false",
      "lang" : "en",
      "numberOfClasses" : "1",
      "numberOfEntities" : "5",
      "numberOfIndividuals" : "2",
      "numberOfProperties" : "2",
      "ontologyId" : "owl2primer-dataproperty-haskey",
      "ontology_purl" : "./testcases/owl2-primer/dataProperty-hasKey.owl",
      "preferredPrefix" : "owl2primer-dataProperty-hasKey",
      "propertyLabels" : { },
      "type" : [ "ontology" ],
      "uri" : "http://www.ebi.ac.uk/testcases/owl2primer/dataProperty-hasKey.owl#",
      "http://www.w3.org/1999/02/22-rdf-syntax-ns#type" : "http://www.w3.org/2002/07/owl#Ontology",
      "http://www.w3.org/2002/07/owl#versionIRI" : "http://www.ebi.ac.uk/testcases/owl2primer/v.0.0.1/dataProperty-hasKey.owl",
      "_links" : {
        "self" : {
          "href" : "http://ols4-server:8080/api/v2/ontologies/owl2primer-dataproperty-haskey?lang=en"
        },
        "entities" : {
          "href" : "http://ols4-server:8080/api/v2/ontologies/owl2primer-dataproperty-haskey/entities"
        },
        "classes" : {
          "href" : "http://ols4-server:8080/api/v2/ontologies/owl2primer-dataproperty-haskey/classes"
        },
        "properties" : {
          "href" : "http://ols4-server:8080/api/v2/ontologies/owl2primer-dataproperty-haskey/properties"
        },
        "individuals" : {
          "href" : "http://ols4-server:8080/api/v2/ontologies/owl2primer-dataproperty-haskey/individuals"
        }
      }
    }, {
      "imported" : "false",
      "lang" : "en",
      "numberOfClasses" : "0",
      "numberOfEntities" : "4",
      "numberOfIndividuals" : "2",
      "numberOfProperties" : "2",
      "ontologyId" : "owl2primer-equivalentobjectproperty",
      "ontology_purl" : "./testcases/owl2-primer/equivalentObjectProperty.owl",
      "preferredPrefix" : "owl2primer-equivalentObjectProperty",
      "propertyLabels" : { },
      "type" : [ "ontology" ],
      "uri" : "http://www.ebi.ac.uk/testcases/owl2primer/equivalentObjectProperty.owl",
      "http://www.w3.org/1999/02/22-rdf-syntax-ns#type" : "http://www.w3.org/2002/07/owl#Ontology",
      "http://www.w3.org/2002/07/owl#versionIRI" : "http://www.ebi.ac.uk/testcases/owl2primer/v.0.0.1/equivalentObjectProperty.owl",
      "_links" : {
        "self" : {
          "href" : "http://ols4-server:8080/api/v2/ontologies/owl2primer-equivalentobjectproperty?lang=en"
        },
        "entities" : {
          "href" : "http://ols4-server:8080/api/v2/ontologies/owl2primer-equivalentobjectproperty/entities"
        },
        "classes" : {
          "href" : "http://ols4-server:8080/api/v2/ontologies/owl2primer-equivalentobjectproperty/classes"
        },
        "properties" : {
          "href" : "http://ols4-server:8080/api/v2/ontologies/owl2primer-equivalentobjectproperty/properties"
        },
        "individuals" : {
          "href" : "http://ols4-server:8080/api/v2/ontologies/owl2primer-equivalentobjectproperty/individuals"
        }
      }
    } ]
  },
  "_links" : {
    "first" : {
      "href" : "http://ols4-server:8080/api/v2/ontologies?page=0&size=20"
    },
    "self" : {
      "href" : "http://ols4-server:8080/api/v2/ontologies"
    },
    "next" : {
      "href" : "http://ols4-server:8080/api/v2/ontologies?page=1&size=20"
    },
    "last" : {
      "href" : "http://ols4-server:8080/api/v2/ontologies?page=2&size=20"
    }
  },
  "page" : {
    "size" : 20,
    "totalElements" : 44,
    "totalPages" : 3,
    "number" : 0
  }
}